<?xml version="1.0" encoding="utf-8"?>
<!-- Generator: Adobe Illustrator 25.2.3, SVG Export Plug-In . SVG Version: 6.00 Build 0)  -->
<svg version="1.1" id="Layer_1" xmlns="http://www.w3.org/2000/svg" xmlns:xlink="http://www.w3.org/1999/xlink" x="0px" y="0px"
	 viewBox="0 0 32 32" style="enable-background:new 0 0 32 32;" xml:space="preserve">
<style type="text/css">
	.st0{fill:#222222;}
	.st1{fill:#FFFFFF;}
</style>
<path id="box" class="st0" d="M25.9,4.1H6.1C5,4.1,4,5.1,4,6.2v19.5c0,1.2,1,2.1,2.1,2.1h19.7c1.2,0,2.1-1,2.1-2.1V6.2
	C28,5.1,27,4.1,25.9,4.1z M26.8,25.8c0,0.5-0.4,0.9-0.9,0.9H6.1c-0.5,0-0.9-0.4-0.9-0.9V6.2c0-0.5,0.4-0.9,0.9-0.9h19.7
	c0.5,0,0.9,0.4,0.9,0.9V25.8z"/>
<path id="line" class="st0" d="M24.1,24.1h-16c-0.3,0-0.6-0.3-0.6-0.6s0.3-0.6,0.6-0.6h16c0.3,0,0.6,0.3,0.6,0.6
	S24.5,24.1,24.1,24.1z"/>
<path id="screen" class="st0" d="M24.7,10.5C24.6,10.4,21.9,7,16,7s-8.6,3.4-8.7,3.6c-0.2,0.2-0.2,0.6,0.1,0.8c0,0,2,1.9,3.1,2.9
	c0.1,0.1,0.3,0.2,0.4,0.2c0.1,0,0.3,0,0.4-0.2c2-1.7,7.4-1.7,9.4,0c0.2,0.2,0.6,0.2,0.8,0c1.1-1.1,3.1-2.9,3.1-2.9
	C24.9,11.1,24.9,10.8,24.7,10.5z M21,13c-0.7-0.4-1.5-0.8-2.4-1l1.1-1.4c0.2-0.3,0.2-0.6-0.1-0.9c-0.3-0.2-0.6-0.2-0.8,0.1l-1.6,1.9
	C15,11.7,12.5,12,11,13c-0.8-0.7-1.8-1.7-2.3-2.2C9.5,10,11.9,8.2,16,8.2s6.5,1.9,7.4,2.7C22.8,11.4,21.8,12.3,21,13z"/>
</svg>
